…
    ## Rows: 32906 Columns: 4
    ## ── Column specification ────────────────────────────────────────────────────────
    ## Delimiter: ","
    ## chr  (1): application_number
    ## dbl  (2): ego_examiner_id, alter_examiner_id
    ## date (1): advice_date
    ## 
    ## ℹ Use `spec()` to retrieve the full column specification for this data.
    ## ℹ Specify the column types or set `show_col_types = FALSE` to quiet this message.

``` r
applications
```

    ## # A tibble: 2,018,477 × 18
    ##    applicat…¹ filing_d…² exami…³ exami…⁴ exami…⁵ exami…⁶ exami…⁷ uspc_…⁸ uspc_…⁹
    ##    <chr>      <date>     <chr>   <chr>   <chr>     <dbl>   <dbl> <chr>   <chr>  
    ##  1 08284457   2000-01-26 HOWARD  JACQUE… V         96082    1764 508     273000 
    ##  2 08413193   2000-10-11 YILDIR… BEKIR   L         87678    1764 208     179000 
    ##  3 08531853   2000-05-17 HAMILT… CYNTHIA <NA>      63213    1752 430     271100 
    ##  4 08637752   2001-07-20 MOSHER  MARY    <NA>      73788    1648 530     388300 
    ##  5 08682726   2000-04-10 BARR    MICHAEL E         77294    1762 427     430100 
    ##  6 08687412   2000-04-28 GRAY    LINDA   LAMEY     68606    1734 156     204000 
    ##  7 08716371   2004-01-26 MCMILL… KARA    RENITA    89557    1627 424     401000 
    ##  8 08765941   2000-06-23 FORD    VANESSA L         97543    1645 424     001210 
    ##  9 08776818   2000-02-04 STRZEL… TERESA  E         98714    1637 435     006000 
    ## 10 08809677   2002-02-20 KIM     SUN     U         65530    1723 210     645000 
    ## # … with 2,018,467 more rows, 9 more variables: patent_number <chr>,
    ## #   patent_issue_date <date>, abandon_date <date>, disposal_type <chr>,
    ## #   appl_status_code <dbl>, appl_status_date <chr>, tc <dbl>, gender <chr>,
    ## #   race <chr>, and abbreviated variable names ¹​application_number,
    ## #   ²​filing_date, ³​examiner_name_last, ⁴​examiner_name_first,
    ## #   ⁵​examiner_name_middle, ⁶​examiner_id, ⁷​examiner_art_unit, ⁸​uspc_class,
    ## #   ⁹​uspc_subclass

``` r
edges
```

    ## # A tibble: 32,906 × 4
    ##    application_number advice_date ego_examiner_id alter_examiner_id
    ##    <chr>              <date>                <dbl>             <dbl>
    ##  1 09402488           2008-11-17            84356             66266
    ##  2 09402488           2008-11-17            84356             63519
    ##  3 09402488           2008-11-17            84356             98531
    ##  4 09445135           2008-08-21            92953             71313
    ##  5 09445135           2008-08-21            92953             93865
    ##  6 09445135           2008-08-21            92953             91818
    ##  7 09479304           2008-12-15            61767             69277
    ##  8 09479304           2008-12-15            61767             92446
    ##  9 09479304           2008-12-15            61767             66805
    ## 10 09479304           2008-12-15            61767             70919
    ## # … with 32,896 more rows
…
